<?xml version="1.0" standalone="no"?>
<!DOCTYPE svg PUBLIC "-//W3C//DTD SVG 1.1//EN" "http://www.w3.org/Graphics/SVG/1.1/DTD/svg11.dtd" >
<!--
2017-6-6: Created with FontForge (http://fontforge.org)
-->
<svg xmlns="http://www.w3.org/2000/svg" xmlns:xlink="http://www.w3.org/1999/xlink" version="1.1">
<metadata>
Created by FontForge 20160405 at Tue Jun  6 09:14:03 2017
 By Apache
Copyright (c) 2017, Apache
</metadata>
<defs>
<font id="Flaticon" horiz-adv-x="512" >
  <font-face 
    font-family="Flaticon"
    font-weight="400"
    font-stretch="normal"
    units-per-em="512"
    panose-1="2 0 5 3 0 0 0 0 0 0"
    ascent="448"
    descent="-64"
    bbox="-0.000688929 -64 512.001 448"
    underline-thickness="25.6"
    underline-position="-51.2"
    unicode-range="U+0020-F107"
  />
    <missing-glyph />
    <glyph glyph-name="space" unicode=" " horiz-adv-x="200" 
 />
    <glyph glyph-name="uniF106" unicode="&#xf106;" 
d="M434.069 255.005v0c33.3701 40.8398 27.3184 101.006 -13.5244 134.383c-40.8438 33.3691 -101.015 27.3174 -134.399 -13.542l-86.5068 -105.853l150.148 -118.437l45.6748 55.9131c0.719727 0.887695 1.31445 1.83301 2.00195 2.72852zM255.172 55.1338v0
c1.68164 2.07227 0.563477 5.15332 -1.03125 6.61523c-1.5957 1.45312 -4.91895 0 -4.91895 0l-0.09375 0.235352c-60.6709 -40.625 -126.025 -36.9668 -150.7 -33.6826l-0.078125 -0.15625s-6.98145 -1.19629 -2.72461 -6.44238
c2.21289 -2.19727 4.49902 -4.33105 6.96582 -6.34863c39.7773 -32.501 97.6104 -27.5137 129.204 11.1729zM442.045 419.739v0c53.6182 -43.7881 61.5469 -122.707 17.7637 -176.286l-213.58 -261.437c-43.7832 -53.5879 -122.707 -61.5234 -176.302 -17.7324
c-53.584 43.7676 -61.5156 122.719 -17.7402 176.286l213.588 261.406c43.7949 53.5898 122.714 61.5264 176.271 17.7627z" />
    <glyph glyph-name="uniF102" unicode="&#xf102;" 
d="M505.131 401.375c0.149414 -66.7939 -90.1973 -164.864 -158.145 -232.832c-14.8477 -14.8477 -35.0713 -23.5732 -58.5166 -25.2588c-12.4805 -0.895508 -35.1367 -8.14941 -87.4453 -60.459l-135.787 -135.809c-6.03809 -6.01562 -14.0596 -9.34375 -22.5713 -9.34375
c-8.55469 0 -16.5967 3.32812 -22.6562 9.38672c-12.4795 12.458 -12.459 32.8105 0.0429688 45.334c415.83 416.405 451.351 451.648 453.377 453.27c4.24512 3.37109 10.3252 3.05078 14.165 -0.768555c11.6055 -11.5195 17.5156 -26.1543 17.5361 -43.5195z
M85.8232 256.714c-0.0644531 0.0634766 -0.149414 0.0849609 -0.213867 0.148438l-82.709 87.8086c-4.03223 4.28809 -3.84082 11.0508 0.447266 15.083s11.0518 3.83984 15.083 -0.448242l75.2002 -79.9355l29.9521 29.9512l-88.4482 88.4482
c-4.16016 4.16016 -4.16016 10.9238 0 15.083c4.16016 4.16016 10.9229 4.16016 15.083 0l88.4463 -88.4482l29.3125 29.3125l-87.168 73.8564c-4.48047 3.81836 -5.05664 10.5596 -1.2373 15.04c3.79688 4.47949 10.5391 5.05566 15.04 1.23633l96 -81.3438
c0 -0.0214844 0.0214844 -0.0214844 0.0214844 -0.0214844l2.75195 -2.32422c14.6982 -14.6348 22.6553 -33.5781 22.4424 -52.5654c-0.105469 -8.36328 2.36816 -22.7412 24.6836 -51.0078c3.34863 -4.2666 2.98633 -10.3252 -0.832031 -14.165l-34.0693 -34.0918
c-2.06934 -2.09082 -4.82129 -3.13574 -7.55176 -3.13574c-2.3252 0 -4.67188 0.768555 -6.61328 2.30371c-19.7969 15.6582 -35.4131 23.7012 -47.7646 24.5977c-23.2324 1.70605 -43.2002 10.1328 -57.708 24.4053
c-0.0634766 0.0634766 -0.0849609 0.148438 -0.148438 0.212891zM502.635 -9.37793c6.03711 -6.05762 9.36621 -14.1016 9.36621 -22.6348s-3.30566 -16.5762 -9.36523 -22.6133c-6.05859 -6.03711 -14.0801 -9.36523 -22.6348 -9.36523s-16.5977 3.32812 -22.6348 9.36523
l-160.556 160.556c-2.81641 2.81543 -3.83984 6.97559 -2.62402 10.7725c1.21582 3.79785 4.43848 6.61426 8.36328 7.27539c14.9756 2.55957 28.5225 7.55176 40.3203 14.8047c4.20117 2.60352 9.6416 1.98438 13.1406 -1.53613z" />
    <glyph glyph-name="uniF103" unicode="&#xf103;" 
d="M308.97 333.485c0.625977 40.9258 33.9482 73.9404 75.0273 73.9531c41.4746 0 75.0908 -33.6152 75.0908 -75.0908c0 -41.4688 -33.6162 -75.084 -75.0908 -75.084c-11.3613 0 -22.0762 2.59375 -31.7314 7.10547c-3.02148 29.1553 -19.6221 54.2734 -43.2959 69.1162z
M259.776 179.738c-41.4688 0 -75.1035 33.6162 -75.1035 75.084c0 41.4688 33.6348 75.0908 75.1035 75.0908s75.0908 -33.6152 75.0908 -75.084s-33.6162 -75.0908 -75.0908 -75.0908zM291.629 174.62c53.0146 0 96.1445 -43.1357 96.125 -96.1504v-77.9346h-0.537109
l-5.01562 -2.53711c-2.52344 -1.28418 -43.4814 -21.4307 -114.144 -21.4307c-36.1787 0 -80.1328 5.27148 -130.726 21.0801l-5.36719 1.67969l-0.198242 1.2207v77.9219c0 53.0146 43.1299 96.1504 96.1445 96.1504h63.7178zM415.862 252.139
c53.0078 0 96.1377 -43.1299 96.1377 -96.1377v-77.9473h-0.537109l-5.01562 -2.54297c-2.37012 -1.18848 -38.3438 -18.8809 -100.771 -21.1689v24.0127c0 51.6152 -34.4785 95.3135 -81.6016 109.326c17.0791 16.3828 27.8779 39.1621 28.5615 64.458h63.2256z
M128.016 257.251c-41.4814 0 -75.0908 33.6221 -75.0908 75.0781c0 41.4746 33.6094 75.0908 75.0908 75.0908c41.4561 0 75.0781 -33.6162 75.0781 -75.0908c0 -1.41895 -0.133789 -2.81152 -0.210938 -4.21777c-18.3828 -14.2871 -31.251 -35.2637 -34.9316 -59.2695
c-11.5781 -7.30371 -25.2451 -11.5908 -39.9355 -11.5908zM195.452 187.681c-47.1367 -14.0254 -81.6016 -57.7109 -81.6143 -109.326v-23.5332c-31.4629 1.83984 -67.6855 7.68066 -108.272 20.3506l-5.36719 1.69336l-0.198242 1.20117v77.9346
c0 53.0078 43.1299 96.1377 96.1445 96.1377h63.7109c2.38965 0 4.70898 -0.18457 7.05371 -0.357422c0.786133 -25.1436 11.5469 -47.8008 28.543 -64.1006z" />
    <glyph glyph-name="uniF107" unicode="&#xf107;" 
d="M44.5195 370.453c24.583 0 44.5205 -19.9355 44.5205 -44.5361c0 -24.583 -19.9375 -44.502 -44.5205 -44.502s-44.5195 19.9189 -44.5195 44.502c0 24.6006 19.9365 44.5361 44.5195 44.5361zM44.5195 236.511c24.583 0 44.5205 -19.9189 44.5205 -44.5195
c0 -24.583 -19.9375 -44.5186 -44.5205 -44.5186s-44.5195 19.9355 -44.5195 44.5186c0 24.6006 19.9365 44.5195 44.5195 44.5195zM44.5195 102.585c24.583 0 44.5205 -19.9355 44.5205 -44.5186s-19.9375 -44.5195 -44.5205 -44.5195s-44.5195 19.9365 -44.5195 44.5195
s19.9365 44.5186 44.5195 44.5186zM478.522 359.411c18.4854 0 33.4775 -14.9912 33.4775 -33.4941c0 -18.4883 -14.9922 -33.4775 -33.4775 -33.4775h-316.684c-18.4883 0 -33.4775 14.9893 -33.4775 33.4775c0 18.5029 14.9912 33.4941 33.4775 33.4941h316.684z
M478.522 225.485c18.4854 0 33.4775 -14.9902 33.4775 -33.4941c0 -18.4883 -14.9922 -33.4775 -33.4775 -33.4775h-316.684c-18.4883 0 -33.4775 14.9893 -33.4775 33.4775c0 18.5039 14.9912 33.4941 33.4775 33.4941h316.684zM478.522 91.5439
c18.4854 0 33.4775 -14.9883 33.4775 -33.4775c0 -18.4863 -14.9922 -33.4766 -33.4775 -33.4766h-316.684c-18.4883 0 -33.4775 14.9902 -33.4775 33.4766c0 18.4883 14.9912 33.4775 33.4775 33.4775h316.684z" />
    <glyph glyph-name="uniF100" unicode="&#xf100;" 
d="M443.978 194.869h-241.146c0.618164 4.61426 0.900391 9.34082 0.900391 14.0664c0 14.9102 -2.92578 29.3691 -8.66406 42.9854c-0.844727 1.91309 -1.68848 3.76953 -2.58887 5.62598h284.919c9.45312 0 17.1611 -7.70801 17.1611 -17.1602v-45.5176h-50.5811z
M93.3418 299.633c32.1826 0 60.4834 -16.7666 76.5186 -42.0859c8.94629 -14.0098 14.1221 -30.6631 14.1221 -48.5557c0 -4.78223 -0.336914 -9.45215 -1.06934 -14.0654h-32.6885h-62.5098v104.538c1.85742 0.112305 3.71387 0.168945 5.62695 0.168945zM16.8789 36.4307
c-9.33984 0 -16.8789 7.5957 -16.8789 16.8789v96.7744v21.6611v74.4365v21.6621v62.8467c0 9.33984 7.53906 16.8789 16.8789 16.8789h34.2646c9.33984 0 16.8789 -7.53906 16.8789 -16.8789v-34.6592v-120.854h375.955h51.1436
c9.33984 0 16.8789 -7.53809 16.8789 -16.8789v-104.988c0 -9.33984 -7.53906 -16.8789 -16.8789 -16.8789h-34.2646c-9.33984 0 -16.8789 7.53906 -16.8789 16.8789v53.8447h-375.955v-53.8447c0 -9.33984 -7.53906 -16.8789 -16.8789 -16.8789h-34.2646z" />
    <glyph glyph-name="uniF101" unicode="&#xf101;" 
d="M492.308 211.692c10.8896 0 19.6924 -8.82227 19.6924 -19.6924v-19.6924c0 -10.8896 -8.80273 -19.6924 -19.6924 -19.6924v-59.0771c0 -42.6924 -36.0176 -84.6172 -77.6865 -95.6055c1.9502 -9.62988 6.97168 -22.5479 18.5898 -22.5479
c10.8896 0 19.6924 -8.80273 19.6924 -19.6924s-8.80273 -19.6924 -19.6924 -19.6924c-33.9893 0 -54.0352 28.6719 -58.1904 59.0771h-238.061c-4.13574 -30.4053 -24.1816 -59.0771 -58.1904 -59.0771c-10.8701 0 -19.6924 8.80273 -19.6924 19.6924
s8.82227 19.6924 19.6924 19.6924c11.6182 0 16.6396 12.918 18.5889 22.5479c-41.6484 10.9883 -77.666 52.9131 -77.666 95.6055v59.0771c-10.8701 0 -19.6924 8.80273 -19.6924 19.6924v19.6924c0 10.8701 8.82227 19.6924 19.6924 19.6924h433.23v157.538
c-0.157227 9.11816 -3.42578 39.3848 -39.3848 39.3848c-23.9062 0 -33.2793 -13.3115 -36.9814 -24.6943c21.3262 -8.72363 36.3711 -29.6172 36.3711 -54.0752h-116.933c0 26.0332 17.1318 47.833 40.6445 55.3945c5.92773 29.4404 28.2783 62.7598 76.8984 62.7598
c57.7969 0 78.7695 -47.1035 78.7695 -78.7695v-157.538zM452.923 93.5381v59.0771h-393.846v-59.0771c0 -27.6084 31.4678 -59.0762 59.0771 -59.0762h275.691c28.1602 0 59.0771 30.917 59.0771 59.0762zM304.325 307.771l1.20117 4.76465
c1.2998 5.29785 6.57715 8.50781 11.9336 7.16895c5.29688 -1.32031 8.4873 -6.65625 7.16797 -11.9336l-1.20117 -4.76562c-1.12305 -4.49023 -5.13965 -7.46387 -9.55078 -7.46387c-0.788086 0 -1.5752 0.0986328 -2.38281 0.295898
c-5.27734 1.31934 -8.46777 6.65527 -7.16797 11.9336zM294.715 269.292l1.92969 7.7002c1.2998 5.27734 6.55762 8.52637 11.9336 7.16797c5.29785 -1.31934 8.4873 -6.65625 7.16797 -11.9336l-1.92969 -7.7002c-1.12207 -4.48926 -5.13965 -7.46289 -9.55078 -7.46289
c-0.787109 0 -1.5752 0.0986328 -2.38281 0.294922c-5.27734 1.31934 -8.4873 6.67578 -7.16797 11.9336zM285.834 233.768l1.20117 4.76562c1.2998 5.27734 6.57715 8.52637 11.9336 7.16797c5.29688 -1.31934 8.4873 -6.65625 7.16797 -11.9336l-1.20117 -4.76562
c-1.10254 -4.49023 -5.12012 -7.46387 -9.55078 -7.46387c-0.788086 0 -1.5752 0.0986328 -2.38281 0.295898c-5.29688 1.31934 -8.4873 6.67578 -7.16797 11.9336zM404.599 307.771c1.29883 -5.27832 -1.89062 -10.6143 -7.16895 -11.9336
c-0.787109 -0.197266 -1.59473 -0.295898 -2.38184 -0.295898c-4.43164 0 -8.44824 2.97363 -9.55078 7.46387l-1.20215 4.76562c-1.29883 5.27734 1.89062 10.6133 7.16895 11.9336c5.15918 1.3584 10.6133 -1.87109 11.9326 -7.16895zM414.208 269.292
c1.2998 -5.27734 -1.89062 -10.6143 -7.16797 -11.9336c-0.788086 -0.196289 -1.59473 -0.294922 -2.38281 -0.294922c-4.43066 0 -8.44824 2.97363 -9.55078 7.46289l-1.92969 7.7002c-1.2998 5.27734 1.89062 10.6143 7.16797 11.9336
c5.15918 1.37793 10.6143 -1.89062 11.9336 -7.16797zM409.954 245.701c5.21875 1.37793 10.6143 -1.89062 11.9336 -7.16797l1.20117 -4.76562c1.2998 -5.27734 -1.88965 -10.6143 -7.16797 -11.9336c-0.787109 -0.197266 -1.59473 -0.295898 -2.38281 -0.295898
c-4.43066 0 -8.44727 2.97363 -9.55078 7.46387l-1.20117 4.76562c-1.2998 5.27734 1.89062 10.6143 7.16797 11.9336zM344.615 305.23v4.92383c0 5.43457 4.41113 9.8457 9.84668 9.8457c5.43457 0 9.8457 -4.41113 9.8457 -9.8457v-4.92383
c0 -5.43457 -4.41113 -9.8457 -9.8457 -9.8457c-5.43555 0 -9.84668 4.41113 -9.84668 9.8457zM344.615 274.59c0 5.43457 4.41113 9.8457 9.84668 9.8457c5.43457 0 9.8457 -4.41113 9.8457 -9.8457v-7.66016c0 -5.43555 -4.41113 -9.84668 -9.8457 -9.84668
c-5.43555 0 -9.84668 4.41113 -9.84668 9.84668v7.66016zM344.615 236.308c0 5.43555 4.41113 9.84668 9.84668 9.84668c5.43457 0 9.8457 -4.41113 9.8457 -9.84668v-4.92285c0 -5.43555 -4.41113 -9.84668 -9.8457 -9.84668c-5.43555 0 -9.84668 4.41113 -9.84668 9.84668
v4.92285z" />
    <glyph glyph-name="uniF104" unicode="&#xf104;" 
d="M476.895 341.244c19.3174 0 35.1982 -15.416 35.1045 -35.291v-316.041c0 -19.3174 -15.8799 -35.1982 -35.1973 -35.1982h-441.604c-19.3174 0 -35.1982 15.8799 -35.1982 35.1982v316.041c0 19.3174 15.8809 35.1982 35.1982 35.1982h58.5088v37.5205
c0 27.8613 22.7539 50.6143 50.6152 50.6143h223.448c27.8613 0 50.6152 -22.7529 50.6152 -50.6143v-37.4277h58.5088zM94.3574 -21.9756v340.467h-19.3174v-340.467h19.3174zM354.676 120.675h0.000976562v55.7227c0 10.2158 -7.42969 18.2031 -17.6455 18.2031h-34.6406
v34.6406c0 10.2158 -7.42969 18.2031 -17.6465 18.2031h-56.2803v0c-9.65918 0 -17.6455 -7.9873 -17.6455 -18.2031v-34.6406h-34.6416c-9.6582 0 -17.6455 -7.9873 -17.6455 -18.2031v-55.7227c0 -10.2158 7.42969 -18.2041 17.6455 -18.2041h34.6416v-34.6406
c0 -9.6582 7.42969 -17.6455 17.6455 -17.6455h56.2803c10.2158 0 17.6455 7.42969 17.6455 17.6455v34.6406h34.6406c9.6582 0 17.6455 7.98828 17.6455 18.2041zM387.646 341.244v-0.0927734h0.463867v37.5205c0 11.3301 -8.54395 19.874 -19.874 19.874h-223.356
c-11.3301 0 -19.874 -8.54395 -19.874 -19.874v-37.4277h262.641zM437.61 -21.9756v340.467h-19.3174v-340.467h19.3174z" />
    <glyph glyph-name="uniF105" unicode="&#xf105;" 
d="M416.657 151.21c52.5742 0 95.3428 -42.7744 95.3428 -95.3486s-42.7744 -95.3428 -95.3486 -95.3428h-249.39c-47.2422 0 -86.5469 34.5449 -94.04 79.6934c7.26855 -1.41895 14.6396 -2.13672 22.0176 -2.13672c0.858398 0 1.70996 0.0419922 2.5625 0.0605469
c7.92578 -31.0137 36.0176 -54.041 69.4658 -54.041h109.854v143.54h-45.0996l23.5762 23.5752h161.059zM394.933 -14.7061c5.58203 0 10.1045 4.52246 10.1045 10.1045s-4.52246 10.1045 -10.1045 10.1045h-78.9443c-5.58203 0 -10.1045 -4.52246 -10.1045 -10.1045
s4.52246 -10.1045 10.1045 -10.1045h78.9443zM435.211 -14.7061c5.58203 0 10.1045 4.52246 10.1045 10.1045s-4.52246 10.1045 -10.1045 10.1045h-3.91992c-5.58203 0 -10.1045 -4.52246 -10.1045 -10.1045s4.52246 -10.1045 10.1045 -10.1045h3.91992zM339.004 395.65
c17.9453 -17.9385 27.8301 -41.8789 27.8301 -67.4141c0 -25.5361 -9.87891 -49.4766 -27.8242 -67.4219l-176.344 -176.344c-18.584 -18.584 -43.0059 -27.8789 -67.4209 -27.8789c-24.4219 0 -48.8311 9.28906 -67.4209 27.8789
c-17.9443 17.9453 -27.8242 41.8857 -27.8242 67.4209c0 25.5361 9.87988 49.4766 27.8184 67.415l176.344 176.344c17.9443 17.9453 41.8857 27.8242 67.4209 27.8242s49.4824 -9.87891 67.4209 -27.8242zM145.993 101.144l77.6777 77.6777l-101.496 101.497
l-77.6777 -77.6777c-13.4893 -13.4893 -20.9219 -31.5137 -20.9219 -50.749s7.43262 -37.2588 20.9219 -50.748c27.9766 -27.9824 73.5078 -27.9824 101.496 0zM306.128 262.976c3.94434 3.94434 3.94434 10.3418 0 14.2871c-3.94531 3.94434 -10.3428 3.94434 -14.2871 0
l-55.8252 -55.8193c-3.94434 -3.94434 -3.94434 -10.3418 0 -14.2861c1.97266 -1.97266 4.55957 -2.95898 7.14648 -2.95898s5.17383 0.986328 7.14648 2.95898zM334.609 291.457c3.94434 3.94531 3.94434 10.3428 -0.00683594 14.2871
c-3.94434 3.94434 -10.3418 3.94434 -14.2861 0l-2.76953 -2.76953c-3.94434 -3.94434 -3.94434 -10.3428 0 -14.2871c1.97852 -1.97168 4.55957 -2.95801 7.14648 -2.95801s5.17383 0.986328 7.14648 2.95801z" />
  </font>
</defs></svg>
